EESchema Schematic File Version 2
LIBS:power
LIBS:device
LIBS:transistors
LIBS:conn
LIBS:linear
LIBS:regul
LIBS:74xx
LIBS:cmos4000
LIBS:adc-dac
LIBS:memory
LIBS:xilinx
LIBS:special
LIBS:microcontrollers
LIBS:dsp
LIBS:microchip
LIBS:analog_switches
LIBS:motorola
LIBS:texas
LIBS:intel
LIBS:audio
LIBS:interface
LIBS:digital-audio
LIBS:philips
LIBS:display
LIBS:cypress
LIBS:siliconi
LIBS:opto
LIBS:atmel
LIBS:contrib
LIBS:valves
LIBS:xc6slx-ft256
LIBS:Silabs_transceivers
LIBS:passives
EELAYER 27 0
EELAYER END
$Descr A4 11693 8268
encoding utf-8
Sheet 3 5
Title ""
Date "23 feb 2015"
Rev ""
Comp ""
Comment1 ""
Comment2 ""
Comment3 ""
Comment4 ""
$EndDescr
$Comp
L SI4461 U301
U 1 1 54E6F93F
P 5850 4000
F 0 "U301" H 5800 4000 60  0000 C CNN
F 1 "SI4461" H 6300 4400 60  0000 C CNN
F 2 "~" H 5850 4000 60  0000 C CNN
F 3 "~" H 5850 4000 60  0000 C CNN
	1    5850 4000
	1    0    0    -1  
$EndComp
$Comp
L GND #PWR01
U 1 1 54E6F94E
P 5700 4600
F 0 "#PWR01" H 5700 4600 30  0001 C CNN
F 1 "GND" H 5700 4530 30  0001 C CNN
F 2 "" H 5700 4600 60  0000 C CNN
F 3 "" H 5700 4600 60  0000 C CNN
	1    5700 4600
	1    0    0    -1  
$EndComp
Wire Wire Line
	5700 4400 5700 4600
$Comp
L GND #PWR02
U 1 1 54E6F95E
P 5850 3300
F 0 "#PWR02" H 5850 3300 30  0001 C CNN
F 1 "GND" H 5850 3230 30  0001 C CNN
F 2 "" H 5850 3300 60  0000 C CNN
F 3 "" H 5850 3300 60  0000 C CNN
	1    5850 3300
	-1   0    0    1   
$EndComp
Wire Wire Line
	5850 3600 5850 3300
NoConn ~ 5850 4400
Text HLabel 6600 3900 2    25   Input ~ 0
RADIO_CS
Text HLabel 6600 3950 2    25   Input ~ 0
RADIO_MOSI
Text HLabel 6600 4000 2    25   Output ~ 0
RADIO_MISO
Text HLabel 6600 4050 2    25   Input ~ 0
RADIO_CLK
Text HLabel 6600 4100 2    25   Output ~ 0
RADIO_IRQ
Wire Wire Line
	6250 3900 6600 3900
Wire Wire Line
	6250 3950 6600 3950
Wire Wire Line
	6250 4000 6600 4000
Wire Wire Line
	6250 4050 6600 4050
Wire Wire Line
	6250 4100 6600 4100
Text HLabel 6600 4550 2    25   BiDi ~ 0
RADIO_GPIO0
Text HLabel 6600 4500 2    25   BiDi ~ 0
RADIO_GPIO1
Wire Wire Line
	6000 4400 6000 4500
Wire Wire Line
	6000 4500 6600 4500
Wire Wire Line
	5950 4400 5950 4550
Wire Wire Line
	5950 4550 6600 4550
Wire Wire Line
	5450 3900 5350 3900
Wire Wire Line
	5350 3900 5350 3300
Text HLabel 5350 3300 1    25   Input ~ 0
RADIO_SDN
Wire Wire Line
	5750 3600 5750 3450
Wire Wire Line
	5750 3450 5650 3450
Wire Wire Line
	5650 3450 5650 3300
Wire Wire Line
	5800 3600 5800 3400
Wire Wire Line
	5800 3400 5700 3400
Wire Wire Line
	5700 3400 5700 3300
Text HLabel 5650 3300 1    25   BiDi ~ 0
RADIO_GPIO3
Text HLabel 5700 3300 1    25   BiDi ~ 0
RADIO_GPIO2
$Comp
L CAP_0402 C309
U 1 1 54E6FBAF
P 5650 4900
F 0 "C309" H 5650 4800 25  0000 C CNN
F 1 "CAP_0402" H 5650 4975 25  0000 C CNN
F 2 "SM0402" H 5650 5000 60  0001 C CNN
F 3 "~" H 5650 4900 60  0000 C CNN
	1    5650 4900
	0    -1   -1   0   
$EndComp
$Comp
L CAP_0402 C310
U 1 1 54E6FBBE
P 5900 4900
F 0 "C310" H 5900 4800 25  0000 C CNN
F 1 "CAP_0402" H 5900 4975 25  0000 C CNN
F 2 "SM0402" H 5900 5000 60  0001 C CNN
F 3 "~" H 5900 4900 60  0000 C CNN
	1    5900 4900
	0    -1   -1   0   
$EndComp
$Comp
L CAP_0402 C311
U 1 1 54E6FBCD
P 6150 4900
F 0 "C311" H 6150 4800 25  0000 C CNN
F 1 "CAP_0402" H 6150 4975 25  0000 C CNN
F 2 "SM0402" H 6150 5000 60  0001 C CNN
F 3 "~" H 6150 4900 60  0000 C CNN
	1    6150 4900
	0    -1   -1   0   
$EndComp
$Comp
L CAP_0805 C308
U 1 1 54E6FCBF
P 5400 4900
F 0 "C308" H 5400 4800 25  0000 C CNN
F 1 "CAP_0805" H 5400 4975 25  0000 C CNN
F 2 "SM0805" H 5400 5000 60  0001 C CNN
F 3 "~" H 5400 4900 60  0000 C CNN
	1    5400 4900
	0    -1   -1   0   
$EndComp
Wire Wire Line
	5800 4400 5800 4700
Wire Wire Line
	5250 4700 6150 4700
Wire Wire Line
	5650 4700 5650 4800
Connection ~ 5650 4700
Wire Wire Line
	5900 4400 5900 4800
Connection ~ 5800 4700
Connection ~ 5900 4700
Wire Wire Line
	6150 4700 6150 4800
$Comp
L GND #PWR03
U 1 1 54E6FD67
P 5900 5100
F 0 "#PWR03" H 5900 5100 30  0001 C CNN
F 1 "GND" H 5900 5030 30  0001 C CNN
F 2 "" H 5900 5100 60  0000 C CNN
F 3 "" H 5900 5100 60  0000 C CNN
	1    5900 5100
	1    0    0    -1  
$EndComp
$Comp
L GND #PWR04
U 1 1 54E6FD74
P 6150 5100
F 0 "#PWR04" H 6150 5100 30  0001 C CNN
F 1 "GND" H 6150 5030 30  0001 C CNN
F 2 "" H 6150 5100 60  0000 C CNN
F 3 "" H 6150 5100 60  0000 C CNN
	1    6150 5100
	1    0    0    -1  
$EndComp
$Comp
L GND #PWR05
U 1 1 54E6FD7A
P 5650 5100
F 0 "#PWR05" H 5650 5100 30  0001 C CNN
F 1 "GND" H 5650 5030 30  0001 C CNN
F 2 "" H 5650 5100 60  0000 C CNN
F 3 "" H 5650 5100 60  0000 C CNN
	1    5650 5100
	1    0    0    -1  
$EndComp
$Comp
L GND #PWR06
U 1 1 54E6FD80
P 5400 5100
F 0 "#PWR06" H 5400 5100 30  0001 C CNN
F 1 "GND" H 5400 5030 30  0001 C CNN
F 2 "" H 5400 5100 60  0000 C CNN
F 3 "" H 5400 5100 60  0000 C CNN
	1    5400 5100
	1    0    0    -1  
$EndComp
Wire Wire Line
	6150 5000 6150 5100
Wire Wire Line
	5900 5000 5900 5100
Wire Wire Line
	5650 5000 5650 5100
Wire Wire Line
	5400 5000 5400 5100
$Comp
L +3.3V #PWR07
U 1 1 54E6FE02
P 4950 4600
F 0 "#PWR07" H 4950 4560 30  0001 C CNN
F 1 "+3.3V" H 4950 4710 30  0000 C CNN
F 2 "" H 4950 4600 60  0000 C CNN
F 3 "" H 4950 4600 60  0000 C CNN
	1    4950 4600
	1    0    0    -1  
$EndComp
$Comp
L IND_0402 L306
U 1 1 54E92750
P 5150 4250
F 0 "L306" H 5150 4150 25  0000 C CNN
F 1 "220n" H 5150 4300 25  0000 C CNN
F 2 "SM0402" H 5150 4250 60  0001 C CNN
F 3 "~" H 5150 4250 60  0000 C CNN
	1    5150 4250
	0    -1   -1   0   
$EndComp
$Comp
L IND_0402 L304
U 1 1 54E9275F
P 4900 4050
F 0 "L304" H 4900 3950 25  0000 C CNN
F 1 "39n" H 4900 4100 25  0000 C CNN
F 2 "SM0402" H 4900 4050 60  0001 C CNN
F 3 "~" H 4900 4050 60  0000 C CNN
	1    4900 4050
	1    0    0    -1  
$EndComp
$Comp
L CAP_0402 C305
U 1 1 54E9276E
P 4550 4050
F 0 "C305" H 4550 3950 25  0000 C CNN
F 1 "15p" H 4550 4125 25  0000 C CNN
F 2 "SM0402" H 4550 4150 60  0001 C CNN
F 3 "~" H 4550 4050 60  0000 C CNN
	1    4550 4050
	1    0    0    -1  
$EndComp
Wire Wire Line
	5000 4050 5450 4050
Wire Wire Line
	5150 4150 5150 4050
Connection ~ 5150 4050
Wire Wire Line
	5150 4350 5150 4450
Wire Wire Line
	4800 4050 4650 4050
$Comp
L CAP_0402 C304
U 1 1 54E9281D
P 4300 4250
F 0 "C304" H 4300 4150 25  0000 C CNN
F 1 "8.2p" H 4300 4325 25  0000 C CNN
F 2 "SM0402" H 4300 4350 60  0001 C CNN
F 3 "~" H 4300 4250 60  0000 C CNN
	1    4300 4250
	0    -1   -1   0   
$EndComp
$Comp
L GND #PWR08
U 1 1 54E9282A
P 4300 4450
F 0 "#PWR08" H 4300 4450 30  0001 C CNN
F 1 "GND" H 4300 4380 30  0001 C CNN
F 2 "" H 4300 4450 60  0000 C CNN
F 3 "" H 4300 4450 60  0000 C CNN
	1    4300 4450
	1    0    0    -1  
$EndComp
Wire Wire Line
	4150 4050 4450 4050
Wire Wire Line
	4300 3600 4300 4150
Wire Wire Line
	4300 4350 4300 4450
$Comp
L CAP_0402 C307
U 1 1 54E92884
P 5150 3450
F 0 "C307" H 5150 3350 25  0000 C CNN
F 1 "5.1p" H 5150 3525 25  0000 C CNN
F 2 "SM0402" H 5150 3550 60  0001 C CNN
F 3 "~" H 5150 3450 60  0000 C CNN
	1    5150 3450
	0    -1   -1   0   
$EndComp
Wire Wire Line
	5150 3950 5450 3950
Wire Wire Line
	5150 3550 5150 3950
$Comp
L IND_0402 L303
U 1 1 54E928BB
P 4750 3600
F 0 "L303" H 4750 3500 25  0000 C CNN
F 1 "56n" H 4750 3650 25  0000 C CNN
F 2 "SM0402" H 4750 3600 60  0001 C CNN
F 3 "~" H 4750 3600 60  0000 C CNN
	1    4750 3600
	1    0    0    -1  
$EndComp
$Comp
L IND_0402 L305
U 1 1 54E928C1
P 5000 3750
F 0 "L305" H 5000 3650 25  0000 C CNN
F 1 "56n" H 5000 3800 25  0000 C CNN
F 2 "SM0402" H 5000 3750 60  0001 C CNN
F 3 "~" H 5000 3750 60  0000 C CNN
	1    5000 3750
	0    -1   -1   0   
$EndComp
Wire Wire Line
	4850 3600 5150 3600
Connection ~ 5150 3600
Wire Wire Line
	5000 3650 5000 3600
Connection ~ 5000 3600
Wire Wire Line
	5000 3850 5000 3950
Wire Wire Line
	5000 3950 5050 3950
Wire Wire Line
	5050 3950 5050 4000
Wire Wire Line
	5050 4000 5450 4000
$Comp
L CAP_0402 C306
U 1 1 54E929A7
P 4750 3900
F 0 "C306" H 4750 3800 25  0000 C CNN
F 1 "2.7p" H 4750 3975 25  0000 C CNN
F 2 "SM0402" H 4750 4000 60  0001 C CNN
F 3 "~" H 4750 3900 60  0000 C CNN
	1    4750 3900
	1    0    0    -1  
$EndComp
Wire Wire Line
	5000 3900 4850 3900
Connection ~ 5000 3900
Wire Wire Line
	4650 3600 4300 3600
Connection ~ 4300 4050
Wire Wire Line
	4650 3900 4300 3900
Connection ~ 4300 3900
$Comp
L IND_0402 L302
U 1 1 54E92A50
P 4050 4050
F 0 "L302" H 4050 3950 25  0000 C CNN
F 1 "18n" H 4050 4100 25  0000 C CNN
F 2 "SM0402" H 4050 4050 60  0001 C CNN
F 3 "~" H 4050 4050 60  0000 C CNN
	1    4050 4050
	1    0    0    -1  
$EndComp
$Comp
L IND_0402 L301
U 1 1 54E92A56
P 3650 4050
F 0 "L301" H 3650 3950 25  0000 C CNN
F 1 "18n" H 3650 4100 25  0000 C CNN
F 2 "SM0402" H 3650 4050 60  0001 C CNN
F 3 "~" H 3650 4050 60  0000 C CNN
	1    3650 4050
	1    0    0    -1  
$EndComp
$Comp
L CAP_0402 C303
U 1 1 54E92A5C
P 3850 4250
F 0 "C303" H 3850 4150 25  0000 C CNN
F 1 "15p" H 3850 4325 25  0000 C CNN
F 2 "SM0402" H 3850 4350 60  0001 C CNN
F 3 "~" H 3850 4250 60  0000 C CNN
	1    3850 4250
	0    -1   -1   0   
$EndComp
$Comp
L CAP_0402 C302
U 1 1 54E92A62
P 3450 4250
F 0 "C302" H 3450 4150 25  0000 C CNN
F 1 "6.8p" H 3450 4325 25  0000 C CNN
F 2 "SM0402" H 3450 4350 60  0001 C CNN
F 3 "~" H 3450 4250 60  0000 C CNN
	1    3450 4250
	0    -1   -1   0   
$EndComp
$Comp
L CAP_0402 C301
U 1 1 54E92A68
P 3250 4050
F 0 "C301" H 3250 3950 25  0000 C CNN
F 1 "10n" H 3250 4125 25  0000 C CNN
F 2 "SM0402" H 3250 4150 60  0001 C CNN
F 3 "~" H 3250 4050 60  0000 C CNN
	1    3250 4050
	1    0    0    -1  
$EndComp
Wire Wire Line
	3950 4050 3750 4050
Wire Wire Line
	3850 4050 3850 4150
Connection ~ 3850 4050
Wire Wire Line
	3550 4050 3350 4050
Wire Wire Line
	3450 4150 3450 4050
Connection ~ 3450 4050
$Comp
L GND #PWR09
U 1 1 54E92B98
P 3850 4450
F 0 "#PWR09" H 3850 4450 30  0001 C CNN
F 1 "GND" H 3850 4380 30  0001 C CNN
F 2 "" H 3850 4450 60  0000 C CNN
F 3 "" H 3850 4450 60  0000 C CNN
	1    3850 4450
	1    0    0    -1  
$EndComp
$Comp
L GND #PWR010
U 1 1 54E92B9E
P 3450 4450
F 0 "#PWR010" H 3450 4450 30  0001 C CNN
F 1 "GND" H 3450 4380 30  0001 C CNN
F 2 "" H 3450 4450 60  0000 C CNN
F 3 "" H 3450 4450 60  0000 C CNN
	1    3450 4450
	1    0    0    -1  
$EndComp
Wire Wire Line
	3850 4350 3850 4450
Wire Wire Line
	3450 4350 3450 4450
$Comp
L GND #PWR011
U 1 1 54E92C48
P 5150 3300
F 0 "#PWR011" H 5150 3300 30  0001 C CNN
F 1 "GND" H 5150 3230 30  0001 C CNN
F 2 "" H 5150 3300 60  0000 C CNN
F 3 "" H 5150 3300 60  0000 C CNN
	1    5150 3300
	-1   0    0    1   
$EndComp
Wire Wire Line
	5150 3350 5150 3300
$Comp
L +3.3V #PWR012
U 1 1 54E92CB5
P 5150 4450
F 0 "#PWR012" H 5150 4410 30  0001 C CNN
F 1 "+3.3V" H 5150 4560 30  0000 C CNN
F 2 "" H 5150 4450 60  0000 C CNN
F 3 "" H 5150 4450 60  0000 C CNN
	1    5150 4450
	-1   0    0    1   
$EndComp
Wire Wire Line
	5400 4700 5400 4800
$Comp
L RES_0603 R301
U 1 1 54E92D6F
P 5150 4700
F 0 "R301" H 5150 4600 25  0000 C CNN
F 1 "0" H 5150 4750 25  0000 C CNN
F 2 "SM0603" H 5150 4700 60  0001 C CNN
F 3 "~" H 5150 4700 60  0000 C CNN
	1    5150 4700
	1    0    0    -1  
$EndComp
Wire Wire Line
	4950 4600 4950 4700
Wire Wire Line
	4950 4700 5050 4700
Connection ~ 5400 4700
$EndSCHEMATC
